sisc_p2_files/part2transcript
run -all
#                    0 00000000  xxxx  0000  00000000  00000000  00000000  00000000  00000000  10  0  0  0
#                    5 00000000  0000  0000  00000000  00000000  00000000  00000000  00000000  10  0  0  0
#                   25 00000000  0000  0000  00000000  00000000  00000000  00000000  00000000  10  0  1  0
# 0000  0000
#                   35 00000000  0001  0000  00000000  00000000  00000000  00000000  00000000  10  0  0  0
#                   45 00000000  0001  0000  00000000  00000000  00000000  00000000  00000000  00  0  0  0
#                   55 00000000  0001  0000  00000000  00000000  00000000  00000000  00000000  10  0  0  0
#                   75 00000000  0001  0000  00000000  00000000  00000000  00000000  00000000  10  0  1  0
# 1000  0000
#                   85 88100001  0002  0000  00000000  00000000  00000000  00000000  00000000  10  0  0  0
#                   95 88100001  0002  0000  00000000  00000000  00000000  00000000  00000000  01  0  0  0
#                  105 88100001  0002  0000  00000000  00000000  00000000  00000000  00000000  11  0  0  0
#                  115 88100001  0002  0000  00000000  00000000  00000000  00000000  00000000  10  0  0  0
#                  125 88100001  0002  0000  00000001  00000000  00000000  00000000  00000000  10  0  1  0
# 0000  0000
#                  135 80211001  0003  0000  00000001  00000000  00000000  00000000  00000000  10  0  0  0
#                  145 80211001  0003  0000  00000001  00000000  00000000  00000000  00000000  00  0  0  0
#                  155 80211001  0003  0000  00000001  00000000  00000000  00000000  00000000  10  0  0  0
#                  175 80211001  0003  0000  00000001  00000002  00000000  00000000  00000000  10  0  1  0
# 0000  0000
#                  185 8032200b  0004  0000  00000001  00000002  00000000  00000000  00000000  10  0  0  0
#                  195 8032200b  0004  0000  00000001  00000002  00000000  00000000  00000000  00  0  0  0
#                  205 8032200b  0004  0000  00000001  00000002  00000000  00000000  00000000  10  0  0  0
#                  225 8032200b  0004  0000  00000001  00000002  00000008  00000000  00000000  10  0  1  0
# 0000  0000
#                  235 80412002  0005  0000  00000001  00000002  00000008  00000000  00000000  10  0  0  0
#                  245 80412002  0005  0000  00000001  00000002  00000008  00000000  00000000  00  0  0  0
#                  255 80412002  0005  1010  00000001  00000002  00000008  00000000  00000000  10  0  0  0
#                  275 80412002  0005  1010  00000001  00000002  00000008  ffffffff  00000000  10  0  1  0
# 0000  1010
#                  285 8044300a  0006  1010  00000001  00000002  00000008  ffffffff  00000000  10  0  0  0
#                  295 8044300a  0006  1010  00000001  00000002  00000008  ffffffff  00000000  00  0  0  0
#                  305 8044300a  0006  1010  00000001  00000002  00000008  ffffffff  00000000  10  0  0  0
#                  325 8044300a  0006  1010  00000001  00000002  00000008  00ffffff  00000000  10  0  1  0
# 0000  1010
#                  335 80234007  0007  1010  00000001  00000002  00000008  00ffffff  00000000  10  0  0  0
#                  345 80234007  0007  1010  00000001  00000002  00000008  00ffffff  00000000  00  0  0  0
#                  355 80234007  0007  1010  00000001  00000002  00000008  00ffffff  00000000  10  0  0  0
#                  375 80234007  0007  1010  00000001  00fffff7  00000008  00ffffff  00000000  10  0  1  0
# 0000  1010
#                  385 80220004  0008  1010  00000001  00fffff7  00000008  00ffffff  00000000  10  0  0  0
#                  395 80220004  0008  1010  00000001  00fffff7  00000008  00ffffff  00000000  00  0  0  0
#                  405 80220004  0008  1010  00000001  00fffff7  00000008  00ffffff  00000000  10  0  0  0
#                  425 80220004  0008  1010  00000001  ff000008  00000008  00ffffff  00000000  10  0  1  0
# 0000  1010
#                  435 80421009  0009  1010  00000001  ff000008  00000008  00ffffff  00000000  10  0  0  0
#                  445 80421009  0009  1010  00000001  ff000008  00000008  00ffffff  00000000  00  0  0  0
#                  455 80421009  0009  1010  00000001  ff000008  00000008  00ffffff  00000000  10  0  0  0
#                  475 80421009  0009  1010  00000001  ff000008  00000008  fe000011  00000000  10  0  1  0
# 0000  1010
#                  485 80524005  000a  1010  00000001  ff000008  00000008  fe000011  00000000  10  0  0  0
#                  495 80524005  000a  1010  00000001  ff000008  00000008  fe000011  00000000  00  0  0  0
#                  505 80524005  000a  1010  00000001  ff000008  00000008  fe000011  00000000  10  0  0  0
#                  525 80524005  000a  1010  00000001  ff000008  00000008  fe000011  ff000019  10  0  1  0
# 0000  1010
#                  535 80324006  000b  1010  00000001  ff000008  00000008  fe000011  ff000019  10  0  0  0
#                  545 80324006  000b  1010  00000001  ff000008  00000008  fe000011  ff000019  00  0  0  0
#                  555 80324006  000b  1010  00000001  ff000008  00000008  fe000011  ff000019  10  0  0  0
#                  575 80324006  000b  1010  00000001  ff000008  fe000000  fe000011  ff000019  10  0  1  0
# 0000  1010
#                  585 00000000  000c  1010  00000001  ff000008  fe000000  fe000011  ff000019  10  0  0  0
#                  595 00000000  000c  1010  00000001  ff000008  fe000000  fe000011  ff000019  00  0  0  0
#                  605 00000000  000c  1010  00000001  ff000008  fe000000  fe000011  ff000019  10  0  0  0
#                  625 00000000  000c  1010  00000001  ff000008  fe000000  fe000011  ff000019  10  0  1  0
# 1000  1010
#                  635 88100001  000d  1010  00000001  ff000008  fe000000  fe000011  ff000019  10  0  0  0
#                  645 88100001  000d  1010  00000001  ff000008  fe000000  fe000011  ff000019  01  0  0  0
#                  655 88100001  000d  0000  00000001  ff000008  fe000000  fe000011  ff000019  11  0  0  0
#                  665 88100001  000d  0000  00000001  ff000008  fe000000  fe000011  ff000019  10  0  0  0
#                  675 88100001  000d  0000  00000001  ff000008  fe000000  fe000011  ff000019  10  0  1  0
# 0000  0000
#                  685 80211002  000e  0000  00000001  ff000008  fe000000  fe000011  ff000019  10  0  0  0
#                  695 80211002  000e  0000  00000001  ff000008  fe000000  fe000011  ff000019  00  0  0  0
#                  705 80211002  000e  0001  00000001  ff000008  fe000000  fe000011  ff000019  10  0  0  0
#                  725 80211002  000e  0001  00000001  00000000  fe000000  fe000011  ff000019  10  0  1  0
# 0000  0001
#                  735 80201002  000f  0001  00000001  00000000  fe000000  fe000011  ff000019  10  0  0  0
#                  745 80201002  000f  0001  00000001  00000000  fe000000  fe000011  ff000019  00  0  0  0
#                  755 80201002  000f  1010  00000001  00000000  fe000000  fe000011  ff000019  10  0  0  0
#                  775 80201002  000f  1010  00000001  ffffffff  fe000000  fe000011  ff000019  10  0  1  0
# 0000  1010
#                  785 80311008  0010  1010  00000001  ffffffff  fe000000  fe000011  ff000019  10  0  0  0
#                  795 80311008  0010  1010  00000001  ffffffff  fe000000  fe000011  ff000019  00  0  0  0
#                  805 80311008  0010  1010  00000001  ffffffff  fe000000  fe000011  ff000019  10  0  0  0
#                  825 80311008  0010  1010  00000001  ffffffff  80000000  fe000011  ff000019  10  0  1  0
# 0000  1010
#                  835 80423001  0011  1010  00000001  ffffffff  80000000  fe000011  ff000019  10  0  0  0
#                  845 80423001  0011  1010  00000001  ffffffff  80000000  fe000011  ff000019  00  0  0  0
#                  855 80423001  0011  1100  00000001  ffffffff  80000000  fe000011  ff000019  10  0  0  0
#                  875 80423001  0011  1100  00000001  ffffffff  80000000  7fffffff  ff000019  10  0  1  0
# 0000  1100
#                  885 00000000  0012  1100  00000001  ffffffff  80000000  7fffffff  ff000019  10  0  0  0
#                  895 00000000  0012  1100  00000001  ffffffff  80000000  7fffffff  ff000019  00  0  0  0
#                  905 00000000  0012  1100  00000001  ffffffff  80000000  7fffffff  ff000019  10  0  0  0
#                  925 00000000  0012  1100  00000001  ffffffff  80000000  7fffffff  ff000019  10  0  1  0
# 0000  1100
#                  935 80400001  0013  1100  00000001  ffffffff  80000000  7fffffff  ff000019  10  0  0  0
#                  945 80400001  0013  1100  00000001  ffffffff  80000000  7fffffff  ff000019  00  0  0  0
#                  955 80400001  0013  0001  00000001  ffffffff  80000000  7fffffff  ff000019  10  0  0  0
#                  975 80400001  0013  0001  00000001  ffffffff  80000000  00000000  ff000019  10  0  1  0
# 0001  0001
#                  985 6100001d  0014  0001  00000001  ffffffff  80000000  00000000  ff000019  10  1  0  0
#                  995 6100001d  0014  0001  00000001  ffffffff  80000000  00000000  ff000019  00  0  0  0
#                 1005 6100001d  0014  0001  00000001  ffffffff  80000000  00000000  ff000019  10  0  0  0
#                 1025 6100001d  0014  0001  00000001  ffffffff  80000000  00000000  ff000019  10  0  1  0
# 1000  0001
#                 1035 88100001  0015  0001  00000001  ffffffff  80000000  00000000  ff000019  10  0  0  0
#                 1045 88100001  0015  0001  00000001  ffffffff  80000000  00000000  ff000019  01  0  0  0
#                 1055 88100001  0015  0000  00000001  ffffffff  80000000  00000000  ff000019  11  0  0  0
#                 1065 88100001  0015  0000  00000001  ffffffff  80000000  00000000  ff000019  10  0  0  0
#                 1075 88100001  0015  0000  00000001  ffffffff  80000000  00000000  ff000019  10  0  1  0
# 1000  0000
#                 1085 88200004  0016  0000  00000001  ffffffff  80000000  00000000  ff000019  10  0  0  0
#                 1095 88200004  0016  0000  00000001  ffffffff  80000000  00000000  ff000019  01  0  0  0
#                 1105 88200004  0016  0000  00000001  ffffffff  80000000  00000000  ff000019  11  0  0  0
#                 1115 88200004  0016  0000  00000001  ffffffff  80000000  00000000  ff000019  10  0  0  0
#                 1125 88200004  0016  0000  00000001  00000004  80000000  00000000  ff000019  10  0  1  0
# 1000  0000
#                 1135 8822ffff  0017  0000  00000001  00000004  80000000  00000000  ff000019  10  0  0  0
#                 1145 8822ffff  0017  0000  00000001  00000004  80000000  00000000  ff000019  01  0  0  0
#                 1155 8822ffff  0017  1000  00000001  00000004  80000000  00000000  ff000019  11  0  0  0
#                 1165 8822ffff  0017  1000  00000001  00000004  80000000  00000000  ff000019  10  0  0  0
#                 1175 8822ffff  0017  1000  00000001  00000003  80000000  00000000  ff000019  10  0  1  0
# 0001  1000
#                 1185 51000005  0018  1000  00000001  00000003  80000000  00000000  ff000019  10  0  0  0
#                 1195 51000005  0018  1000  00000001  00000003  80000000  00000000  ff000019  00  0  0  0
#                 1205 51000005  0018  1000  00000001  00000003  80000000  00000000  ff000019  10  0  0  0
#                 1225 51000005  0018  1000  00000001  00000003  80000000  00000000  ff000019  10  0  1  0
# 1000  1000
#                 1235 88320000  0019  1000  00000001  00000003  80000000  00000000  ff000019  10  0  0  0
#                 1245 88320000  0019  1000  00000001  00000003  80000000  00000000  ff000019  01  0  0  0
#                 1255 88320000  0019  0000  00000001  00000003  80000000  00000000  ff000019  11  0  0  0
#                 1265 88320000  0019  0000  00000001  00000003  80000000  00000000  ff000019  10  0  0  0
#                 1275 88320000  0019  0000  00000001  00000003  00000003  00000000  ff000019  10  0  1  0
# 1000  0000
#                 1285 88440001  001a  0000  00000001  00000003  00000003  00000000  ff000019  10  0  0  0
#                 1295 88440001  001a  0000  00000001  00000003  00000003  00000000  ff000019  01  0  0  0
#                 1305 88440001  001a  0000  00000001  00000003  00000003  00000000  ff000019  11  0  0  0
#                 1315 88440001  001a  0000  00000001  00000003  00000003  00000000  ff000019  10  0  0  0
#                 1325 88440001  001a  0000  00000001  00000003  00000003  00000001  ff000019  10  0  1  0
# 0000  0000
#                 1335 80331002  001b  0000  00000001  00000003  00000003  00000001  ff000019  10  0  0  0
#                 1345 80331002  001b  0000  00000001  00000003  00000003  00000001  ff000019  00  0  0  0
#                 1355 80331002  001b  0000  00000001  00000003  00000003  00000001  ff000019  10  0  0  0
#                 1375 80331002  001b  0000  00000001  00000003  00000002  00000001  ff000019  10  0  1  0
# 0001  0000
# BNR
#                 1385 7100fffd  001c  0000  00000001  00000003  00000002  00000001  ff000019  10  0  1  1
#                 1395 7100fffd  0019  0000  00000001  00000003  00000002  00000001  ff000019  00  0  0  0
#                 1405 7100fffd  0019  0000  00000001  00000003  00000002  00000001  ff000019  10  0  0  0
#                 1425 7100fffd  0019  0000  00000001  00000003  00000002  00000001  ff000019  10  0  1  0
# 1000  0000
#                 1435 88440001  001a  0000  00000001  00000003  00000002  00000001  ff000019  10  0  0  0
#                 1445 88440001  001a  0000  00000001  00000003  00000002  00000001  ff000019  01  0  0  0
#                 1455 88440001  001a  0000  00000001  00000003  00000002  00000001  ff000019  11  0  0  0
#                 1465 88440001  001a  0000  00000001  00000003  00000002  00000001  ff000019  10  0  0  0
#                 1475 88440001  001a  0000  00000001  00000003  00000002  00000002  ff000019  10  0  1  0
# 0000  0000
#                 1485 80331002  001b  0000  00000001  00000003  00000002  00000002  ff000019  10  0  0  0
#                 1495 80331002  001b  0000  00000001  00000003  00000002  00000002  ff000019  00  0  0  0
#                 1505 80331002  001b  0000  00000001  00000003  00000002  00000002  ff000019  10  0  0  0
#                 1525 80331002  001b  0000  00000001  00000003  00000001  00000002  ff000019  10  0  1  0
# 0001  0000
# BNR
#                 1535 7100fffd  001c  0000  00000001  00000003  00000001  00000002  ff000019  10  0  1  1
#                 1545 7100fffd  0019  0000  00000001  00000003  00000001  00000002  ff000019  00  0  0  0
#                 1555 7100fffd  0019  0000  00000001  00000003  00000001  00000002  ff000019  10  0  0  0
#                 1575 7100fffd  0019  0000  00000001  00000003  00000001  00000002  ff000019  10  0  1  0
# 1000  0000
#                 1585 88440001  001a  0000  00000001  00000003  00000001  00000002  ff000019  10  0  0  0
#                 1595 88440001  001a  0000  00000001  00000003  00000001  00000002  ff000019  01  0  0  0
#                 1605 88440001  001a  0000  00000001  00000003  00000001  00000002  ff000019  11  0  0  0
#                 1615 88440001  001a  0000  00000001  00000003  00000001  00000002  ff000019  10  0  0  0
#                 1625 88440001  001a  0000  00000001  00000003  00000001  00000003  ff000019  10  0  1  0
# 0000  0000
#                 1635 80331002  001b  0000  00000001  00000003  00000001  00000003  ff000019  10  0  0  0
#                 1645 80331002  001b  0000  00000001  00000003  00000001  00000003  ff000019  00  0  0  0
#                 1655 80331002  001b  0001  00000001  00000003  00000001  00000003  ff000019  10  0  0  0
#                 1675 80331002  001b  0001  00000001  00000003  00000000  00000003  ff000019  10  0  1  0
# 0001  0001
#                 1685 7100fffd  001c  0001  00000001  00000003  00000000  00000003  ff000019  10  0  0  0
#                 1695 7100fffd  001c  0001  00000001  00000003  00000000  00000003  ff000019  00  0  0  0
#                 1705 7100fffd  001c  0001  00000001  00000003  00000000  00000003  ff000019  10  0  0  0
#                 1725 7100fffd  001c  0001  00000001  00000003  00000000  00000003  ff000019  10  0  1  0
# 0000  0001
# BRR
#                 1735 60000016  001d  0001  00000001  00000003  00000000  00000003  ff000019  10  1  1  1
#                 1745 60000016  0016  0001  00000001  00000003  00000000  00000003  ff000019  00  0  0  0
#                 1755 60000016  0016  0001  00000001  00000003  00000000  00000003  ff000019  10  0  0  0
#                 1775 60000016  0016  0001  00000001  00000003  00000000  00000003  ff000019  10  0  1  0
# 1000  0001
#                 1785 8822ffff  0017  0001  00000001  00000003  00000000  00000003  ff000019  10  0  0  0
#                 1795 8822ffff  0017  0001  00000001  00000003  00000000  00000003  ff000019  01  0  0  0
#                 1805 8822ffff  0017  1000  00000001  00000003  00000000  00000003  ff000019  11  0  0  0
#                 1815 8822ffff  0017  1000  00000001  00000003  00000000  00000003  ff000019  10  0  0  0
#                 1825 8822ffff  0017  1000  00000001  00000002  00000000  00000003  ff000019  10  0  1  0
# 0001  1000
#                 1835 51000005  0018  1000  00000001  00000002  00000000  00000003  ff000019  10  0  0  0
#                 1845 51000005  0018  1000  00000001  00000002  00000000  00000003  ff000019  00  0  0  0
#                 1855 51000005  0018  1000  00000001  00000002  00000000  00000003  ff000019  10  0  0  0
#                 1875 51000005  0018  1000  00000001  00000002  00000000  00000003  ff000019  10  0  1  0
# 1000  1000
#                 1885 88320000  0019  1000  00000001  00000002  00000000  00000003  ff000019  10  0  0  0
#                 1895 88320000  0019  1000  00000001  00000002  00000000  00000003  ff000019  01  0  0  0
#                 1905 88320000  0019  0000  00000001  00000002  00000000  00000003  ff000019  11  0  0  0
#                 1915 88320000  0019  0000  00000001  00000002  00000000  00000003  ff000019  10  0  0  0
#                 1925 88320000  0019  0000  00000001  00000002  00000002  00000003  ff000019  10  0  1  0
# 1000  0000
#                 1935 88440001  001a  0000  00000001  00000002  00000002  00000003  ff000019  10  0  0  0
#                 1945 88440001  001a  0000  00000001  00000002  00000002  00000003  ff000019  01  0  0  0
#                 1955 88440001  001a  0000  00000001  00000002  00000002  00000003  ff000019  11  0  0  0
#                 1965 88440001  001a  0000  00000001  00000002  00000002  00000003  ff000019  10  0  0  0
#                 1975 88440001  001a  0000  00000001  00000002  00000002  00000004  ff000019  10  0  1  0
# 0000  0000
#                 1985 80331002  001b  0000  00000001  00000002  00000002  00000004  ff000019  10  0  0  0
#                 1995 80331002  001b  0000  00000001  00000002  00000002  00000004  ff000019  00  0  0  0
#                 2005 80331002  001b  0000  00000001  00000002  00000002  00000004  ff000019  10  0  0  0
#                 2025 80331002  001b  0000  00000001  00000002  00000001  00000004  ff000019  10  0  1  0
# 0001  0000
# BNR
#                 2035 7100fffd  001c  0000  00000001  00000002  00000001  00000004  ff000019  10  0  1  1
#                 2045 7100fffd  0019  0000  00000001  00000002  00000001  00000004  ff000019  00  0  0  0
#                 2055 7100fffd  0019  0000  00000001  00000002  00000001  00000004  ff000019  10  0  0  0
#                 2075 7100fffd  0019  0000  00000001  00000002  00000001  00000004  ff000019  10  0  1  0
# 1000  0000
#                 2085 88440001  001a  0000  00000001  00000002  00000001  00000004  ff000019  10  0  0  0
#                 2095 88440001  001a  0000  00000001  00000002  00000001  00000004  ff000019  01  0  0  0
#                 2105 88440001  001a  0000  00000001  00000002  00000001  00000004  ff000019  11  0  0  0
#                 2115 88440001  001a  0000  00000001  00000002  00000001  00000004  ff000019  10  0  0  0
#                 2125 88440001  001a  0000  00000001  00000002  00000001  00000005  ff000019  10  0  1  0
# 0000  0000
#                 2135 80331002  001b  0000  00000001  00000002  00000001  00000005  ff000019  10  0  0  0
#                 2145 80331002  001b  0000  00000001  00000002  00000001  00000005  ff000019  00  0  0  0
#                 2155 80331002  001b  0001  00000001  00000002  00000001  00000005  ff000019  10  0  0  0
#                 2175 80331002  001b  0001  00000001  00000002  00000000  00000005  ff000019  10  0  1  0
# 0001  0001
#                 2185 7100fffd  001c  0001  00000001  00000002  00000000  00000005  ff000019  10  0  0  0
#                 2195 7100fffd  001c  0001  00000001  00000002  00000000  00000005  ff000019  00  0  0  0
#                 2205 7100fffd  001c  0001  00000001  00000002  00000000  00000005  ff000019  10  0  0  0
#                 2225 7100fffd  001c  0001  00000001  00000002  00000000  00000005  ff000019  10  0  1  0
# 0000  0001
# BRR
#                 2235 60000016  001d  0001  00000001  00000002  00000000  00000005  ff000019  10  1  1  1
#                 2245 60000016  0016  0001  00000001  00000002  00000000  00000005  ff000019  00  0  0  0
#                 2255 60000016  0016  0001  00000001  00000002  00000000  00000005  ff000019  10  0  0  0
#                 2275 60000016  0016  0001  00000001  00000002  00000000  00000005  ff000019  10  0  1  0
# 1000  0001
#                 2285 8822ffff  0017  0001  00000001  00000002  00000000  00000005  ff000019  10  0  0  0
#                 2295 8822ffff  0017  0001  00000001  00000002  00000000  00000005  ff000019  01  0  0  0
#                 2305 8822ffff  0017  1000  00000001  00000002  00000000  00000005  ff000019  11  0  0  0
#                 2315 8822ffff  0017  1000  00000001  00000002  00000000  00000005  ff000019  10  0  0  0
#                 2325 8822ffff  0017  1000  00000001  00000001  00000000  00000005  ff000019  10  0  1  0
# 0001  1000
#                 2335 51000005  0018  1000  00000001  00000001  00000000  00000005  ff000019  10  0  0  0
#                 2345 51000005  0018  1000  00000001  00000001  00000000  00000005  ff000019  00  0  0  0
#                 2355 51000005  0018  1000  00000001  00000001  00000000  00000005  ff000019  10  0  0  0
#                 2375 51000005  0018  1000  00000001  00000001  00000000  00000005  ff000019  10  0  1  0
# 1000  1000
#                 2385 88320000  0019  1000  00000001  00000001  00000000  00000005  ff000019  10  0  0  0
#                 2395 88320000  0019  1000  00000001  00000001  00000000  00000005  ff000019  01  0  0  0
#                 2405 88320000  0019  0000  00000001  00000001  00000000  00000005  ff000019  11  0  0  0
#                 2415 88320000  0019  0000  00000001  00000001  00000000  00000005  ff000019  10  0  0  0
#                 2425 88320000  0019  0000  00000001  00000001  00000001  00000005  ff000019  10  0  1  0
# 1000  0000
#                 2435 88440001  001a  0000  00000001  00000001  00000001  00000005  ff000019  10  0  0  0
#                 2445 88440001  001a  0000  00000001  00000001  00000001  00000005  ff000019  01  0  0  0
#                 2455 88440001  001a  0000  00000001  00000001  00000001  00000005  ff000019  11  0  0  0
#                 2465 88440001  001a  0000  00000001  00000001  00000001  00000005  ff000019  10  0  0  0
#                 2475 88440001  001a  0000  00000001  00000001  00000001  00000006  ff000019  10  0  1  0
# 0000  0000
#                 2485 80331002  001b  0000  00000001  00000001  00000001  00000006  ff000019  10  0  0  0
#                 2495 80331002  001b  0000  00000001  00000001  00000001  00000006  ff000019  00  0  0  0
#                 2505 80331002  001b  0001  00000001  00000001  00000001  00000006  ff000019  10  0  0  0
#                 2525 80331002  001b  0001  00000001  00000001  00000000  00000006  ff000019  10  0  1  0
# 0001  0001
#                 2535 7100fffd  001c  0001  00000001  00000001  00000000  00000006  ff000019  10  0  0  0
#                 2545 7100fffd  001c  0001  00000001  00000001  00000000  00000006  ff000019  00  0  0  0
#                 2555 7100fffd  001c  0001  00000001  00000001  00000000  00000006  ff000019  10  0  0  0
#                 2575 7100fffd  001c  0001  00000001  00000001  00000000  00000006  ff000019  10  0  1  0
# 0000  0001
# BRR
#                 2585 60000016  001d  0001  00000001  00000001  00000000  00000006  ff000019  10  1  1  1
#                 2595 60000016  0016  0001  00000001  00000001  00000000  00000006  ff000019  00  0  0  0
#                 2605 60000016  0016  0001  00000001  00000001  00000000  00000006  ff000019  10  0  0  0
#                 2625 60000016  0016  0001  00000001  00000001  00000000  00000006  ff000019  10  0  1  0
# 1000  0001
#                 2635 8822ffff  0017  0001  00000001  00000001  00000000  00000006  ff000019  10  0  0  0
#                 2645 8822ffff  0017  0001  00000001  00000001  00000000  00000006  ff000019  01  0  0  0
#                 2655 8822ffff  0017  1001  00000001  00000001  00000000  00000006  ff000019  11  0  0  0
#                 2665 8822ffff  0017  1001  00000001  00000001  00000000  00000006  ff000019  10  0  0  0
#                 2675 8822ffff  0017  1001  00000001  00000000  00000000  00000006  ff000019  10  0  1  0
# 0001  1001
# BRR
#                 2685 51000005  0018  1001  00000001  00000000  00000000  00000006  ff000019  10  0  1  1
#                 2695 51000005  001d  1001  00000001  00000000  00000000  00000006  ff000019  00  0  0  0
#                 2705 51000005  001d  1001  00000001  00000000  00000000  00000006  ff000019  10  0  0  0
#                 2725 51000005  001d  1001  00000001  00000000  00000000  00000006  ff000019  10  0  1  0
# 0000  1001
#                 2735 f0000000  001e  1001  00000001  00000000  00000000  00000006  ff000019  10  0  0  0
# Halt.
# ** Note: $stop    : C:/Users/klndholm/Documents/SISC_project/sisc_p2_files/ctrl.v(172)
#    Time: 2740 ns  Iteration: 0  Instance: /sisc_tb/uut/u1
# Break in Module ctrl at C:/Users/klndholm/Documents/SISC_project/sisc_p2_files/ctrl.v line 172
quit -sim
# End time: 23:12:07 on Apr 16,2023, Elapsed time: 0:00:50
# Errors: 0, Warnings: 0
cd C:/Users/klndholm/Documents/SISC_project/sisc_p2_files
vlog -reportprogress 300 -work work C:/Users/klndholm/Documents/SISC_project/sisc_p2_files/alu.v C:/Users/klndholm/Documents/SISC_project/sisc_p2_files/br.v C:/Users/klndholm/Documents/SISC_project/sisc_p2_files/ctrl.v C:/Users/klndholm/Documents/SISC_project/sisc_p2_files/im.v C:/Users/klndholm/Documents/SISC_project/sisc_p2_files/ir.v C:/Users/klndholm/Documents/SISC_project/sisc_p2_files/mux4.v C:/Users/klndholm/Documents/SISC_project/sisc_p2_files/mux32.v C:/Users/klndholm/Documents/SISC_project/sisc_p2_files/pc.v C:/Users/klndholm/Documents/SISC_project/sisc_p2_files/rf.v C:/Users/klndholm/Documents/SISC_project/sisc_p2_files/sisc.v C:/Users/klndholm/Documents/SISC_project/sisc_p2_files/sisc_tb_p2.v C:/Users/klndholm/Documents/SISC_project/sisc_p2_files/statreg.v
# Model Technology ModelSim DE-64 vlog 2020.3 Compiler 2020.07 Jul 12 2020
# Start time: 23:17:20 on Apr 16,2023
# vlog -reportprogress 300 -work work C:/Users/klndholm/Documents/SISC_project/sisc_p2_files/alu.v C:/Users/klndholm/Documents/SISC_project/sisc_p2_files/br.v C:/Users/klndholm/Documents/SISC_project/sisc_p2_files/ctrl.v C:/Users/klndholm/Documents/SISC_project/sisc_p2_files/im.v C:/Users/klndholm/Documents/SISC_project/sisc_p2_files/ir.v C:/Users/klndholm/Documents/SISC_project/sisc_p2_files/mux4.v C:/Users/klndholm/Documents/SISC_project/sisc_p2_files/mux32.v C:/Users/klndholm/Documents/SISC_project/sisc_p2_files/pc.v C:/Users/klndholm/Documents/SISC_project/sisc_p2_files/rf.v C:/Users/klndholm/Documents/SISC_project/sisc_p2_files/sisc.v C:/Users/klndholm/Documents/SISC_project/sisc_p2_files/sisc_tb_p2.v C:/Users/klndholm/Documents/SISC_project/sisc_p2_files/statreg.v 
# -- Compiling module alu
# -- Compiling module br
# -- Compiling module ctrl
# -- Compiling module im
# -- Compiling module ir
# -- Compiling module mux4
# -- Compiling module mux32
# -- Compiling module pc
# -- Compiling module rf
# -- Compiling module sisc
# -- Compiling module sisc_tb
# -- Compiling module statreg
# 
# Top level modules:
# 	sisc_tb
# End time: 23:17:20 on Apr 16,2023, Elapsed time: 0:00:00
# Errors: 0, Warnings: 0
# Load canceled
vsim work.sisc_tb
# vsim work.sisc_tb 
# Start time: 23:17:27 on Apr 16,2023
# Loading work.sisc_tb
# Loading work.sisc
# Loading work.ctrl
# Loading work.rf
# Loading work.alu
# Loading work.mux4
# Loading work.mux32
# Loading work.statreg
# Loading work.pc
# Loading work.br
# Loading work.ir
# Loading work.im
run -all
#                    0 00000000  xxxx  0000  00000000  00000000  00000000  00000000  00000000  10  0  0  0
#                    5 00000000  0000  0000  00000000  00000000  00000000  00000000  00000000  10  0  0  0
#                   25 00000000  0000  0000  00000000  00000000  00000000  00000000  00000000  10  0  1  0
#                   35 00000000  0001  0000  00000000  00000000  00000000  00000000  00000000  10  0  0  0
#                   45 00000000  0001  0000  00000000  00000000  00000000  00000000  00000000  00  0  0  0
#                   55 00000000  0001  0000  00000000  00000000  00000000  00000000  00000000  10  0  0  0
#                   75 00000000  0001  0000  00000000  00000000  00000000  00000000  00000000  10  0  1  0
#                   85 88100001  0002  0000  00000000  00000000  00000000  00000000  00000000  10  0  0  0
#                   95 88100001  0002  0000  00000000  00000000  00000000  00000000  00000000  01  0  0  0
#                  105 88100001  0002  0000  00000000  00000000  00000000  00000000  00000000  11  0  0  0
#                  115 88100001  0002  0000  00000000  00000000  00000000  00000000  00000000  10  0  0  0
#                  125 88100001  0002  0000  00000001  00000000  00000000  00000000  00000000  10  0  1  0
#                  135 80211001  0003  0000  00000001  00000000  00000000  00000000  00000000  10  0  0  0
#                  145 80211001  0003  0000  00000001  00000000  00000000  00000000  00000000  00  0  0  0
#                  155 80211001  0003  0000  00000001  00000000  00000000  00000000  00000000  10  0  0  0
#                  175 80211001  0003  0000  00000001  00000002  00000000  00000000  00000000  10  0  1  0
#                  185 8032200b  0004  0000  00000001  00000002  00000000  00000000  00000000  10  0  0  0
#                  195 8032200b  0004  0000  00000001  00000002  00000000  00000000  00000000  00  0  0  0
#                  205 8032200b  0004  0000  00000001  00000002  00000000  00000000  00000000  10  0  0  0
#                  225 8032200b  0004  0000  00000001  00000002  00000008  00000000  00000000  10  0  1  0
#                  235 80412002  0005  0000  00000001  00000002  00000008  00000000  00000000  10  0  0  0
#                  245 80412002  0005  0000  00000001  00000002  00000008  00000000  00000000  00  0  0  0
#                  255 80412002  0005  1010  00000001  00000002  00000008  00000000  00000000  10  0  0  0
#                  275 80412002  0005  1010  00000001  00000002  00000008  ffffffff  00000000  10  0  1  0
#                  285 8044300a  0006  1010  00000001  00000002  00000008  ffffffff  00000000  10  0  0  0
#                  295 8044300a  0006  1010  00000001  00000002  00000008  ffffffff  00000000  00  0  0  0
#                  305 8044300a  0006  1010  00000001  00000002  00000008  ffffffff  00000000  10  0  0  0
#                  325 8044300a  0006  1010  00000001  00000002  00000008  00ffffff  00000000  10  0  1  0
#                  335 80234007  0007  1010  00000001  00000002  00000008  00ffffff  00000000  10  0  0  0
#                  345 80234007  0007  1010  00000001  00000002  00000008  00ffffff  00000000  00  0  0  0
#                  355 80234007  0007  1010  00000001  00000002  00000008  00ffffff  00000000  10  0  0  0
#                  375 80234007  0007  1010  00000001  00fffff7  00000008  00ffffff  00000000  10  0  1  0
#                  385 80220004  0008  1010  00000001  00fffff7  00000008  00ffffff  00000000  10  0  0  0
#                  395 80220004  0008  1010  00000001  00fffff7  00000008  00ffffff  00000000  00  0  0  0
#                  405 80220004  0008  1010  00000001  00fffff7  00000008  00ffffff  00000000  10  0  0  0
#                  425 80220004  0008  1010  00000001  ff000008  00000008  00ffffff  00000000  10  0  1  0
#                  435 80421009  0009  1010  00000001  ff000008  00000008  00ffffff  00000000  10  0  0  0
#                  445 80421009  0009  1010  00000001  ff000008  00000008  00ffffff  00000000  00  0  0  0
#                  455 80421009  0009  1010  00000001  ff000008  00000008  00ffffff  00000000  10  0  0  0
#                  475 80421009  0009  1010  00000001  ff000008  00000008  fe000011  00000000  10  0  1  0
#                  485 80524005  000a  1010  00000001  ff000008  00000008  fe000011  00000000  10  0  0  0
#                  495 80524005  000a  1010  00000001  ff000008  00000008  fe000011  00000000  00  0  0  0
#                  505 80524005  000a  1010  00000001  ff000008  00000008  fe000011  00000000  10  0  0  0
#                  525 80524005  000a  1010  00000001  ff000008  00000008  fe000011  ff000019  10  0  1  0
#                  535 80324006  000b  1010  00000001  ff000008  00000008  fe000011  ff000019  10  0  0  0
#                  545 80324006  000b  1010  00000001  ff000008  00000008  fe000011  ff000019  00  0  0  0
#                  555 80324006  000b  1010  00000001  ff000008  00000008  fe000011  ff000019  10  0  0  0
