sisc_p2_files/transcript
# Reading pref.tcl
cd C:/Users/klndholm/Documents/SISC_project/sisc_p2_files
vlog -reportprogress 300 -work work C:/Users/klndholm/Documents/SISC_project/sisc_p2_files/alu.v C:/Users/klndholm/Documents/SISC_project/sisc_p2_files/br.v C:/Users/klndholm/Documents/SISC_project/sisc_p2_files/ctrl.v C:/Users/klndholm/Documents/SISC_project/sisc_p2_files/im.v C:/Users/klndholm/Documents/SISC_project/sisc_p2_files/ir.v C:/Users/klndholm/Documents/SISC_project/sisc_p2_files/mux4.v C:/Users/klndholm/Documents/SISC_project/sisc_p2_files/mux32.v C:/Users/klndholm/Documents/SISC_project/sisc_p2_files/pc.v C:/Users/klndholm/Documents/SISC_project/sisc_p2_files/rf.v C:/Users/klndholm/Documents/SISC_project/sisc_p2_files/sisc.v C:/Users/klndholm/Documents/SISC_project/sisc_p2_files/sisc_tb_p2.v C:/Users/klndholm/Documents/SISC_project/sisc_p2_files/statreg.v
# Model Technology ModelSim DE-64 vlog 2020.3 Compiler 2020.07 Jul 12 2020
# Start time: 15:19:23 on Apr 15,2023
# vlog -reportprogress 300 -work work C:/Users/klndholm/Documents/SISC_project/sisc_p2_files/alu.v C:/Users/klndholm/Documents/SISC_project/sisc_p2_files/br.v C:/Users/klndholm/Documents/SISC_project/sisc_p2_files/ctrl.v C:/Users/klndholm/Documents/SISC_project/sisc_p2_files/im.v C:/Users/klndholm/Documents/SISC_project/sisc_p2_files/ir.v C:/Users/klndholm/Documents/SISC_project/sisc_p2_files/mux4.v C:/Users/klndholm/Documents/SISC_project/sisc_p2_files/mux32.v C:/Users/klndholm/Documents/SISC_project/sisc_p2_files/pc.v C:/Users/klndholm/Documents/SISC_project/sisc_p2_files/rf.v C:/Users/klndholm/Documents/SISC_project/sisc_p2_files/sisc.v C:/Users/klndholm/Documents/SISC_project/sisc_p2_files/sisc_tb_p2.v C:/Users/klndholm/Documents/SISC_project/sisc_p2_files/statreg.v 
# -- Compiling module alu
# -- Compiling module br
# -- Compiling module ctrl
# -- Compiling module im
# -- Compiling module ir
# -- Compiling module mux4
# -- Compiling module mux32
# -- Compiling module pc
# -- Compiling module rf
# -- Compiling module sisc
# -- Compiling module sisc_tb
# -- Compiling module statreg
# 
# Top level modules:
# 	sisc_tb
# End time: 15:19:23 on Apr 15,2023, Elapsed time: 0:00:00
# Errors: 0, Warnings: 0
vsim -gui work.sisc_tb
# vsim -gui work.sisc_tb 
# Start time: 15:19:32 on Apr 15,2023
# //  ModelSim DE-64 2020.3 Jul 12 2020
# //
# //  Copyright 1991-2020 Mentor Graphics Corporation
# //  All Rights Reserved.
# //
# //  ModelSim DE-64 and its associated documentation contain trade
# //  secrets and commercial or financial information that are the property of
# //  Mentor Graphics Corporation and are privileged, confidential,
# //  and exempt from disclosure under the Freedom of Information Act,
# //  5 U.S.C. Section 552. Furthermore, this information
# //  is prohibited from disclosure under the Trade Secrets Act,
# //  18 U.S.C. Section 1905.
# //
# Loading work.sisc_tb
# Loading work.sisc
# Loading work.ctrl
# Loading work.rf
# Loading work.alu
# Loading work.mux4
# Loading work.mux32
# Loading work.statreg
# Loading work.pc
# Loading work.br
# Loading work.ir
# Loading work.im
run -all
#                    0 00000000  xxxx  00000000  00000000  00000000  00000000  00000000  10  0  0  0
#                    5 00000000  0000  00000000  00000000  00000000  00000000  00000000  10  0  0  0
#                   35 00000000  0000  00000000  00000000  00000000  00000000  00000000  10  1  1  0
#                   45 00000000  0001  00000000  00000000  00000000  00000000  00000000  00  0  0  0
#                   55 00000000  0001  00000000  00000000  00000000  00000000  00000000  10  0  0  0
#                   85 88100001  0001  00000000  00000000  00000000  00000000  00000000  10  1  1  0
#                   95 88100001  0002  00000000  00000000  00000000  00000000  00000000  01  0  0  0
#                  105 88100001  0002  00000000  00000000  00000000  00000000  00000000  11  0  0  0
#                  115 88100001  0002  00000000  00000000  00000000  00000000  00000000  10  0  0  0
#                  125 88100001  0002  00000001  00000000  00000000  00000000  00000000  10  0  0  0
#                  135 80211001  0002  00000001  00000000  00000000  00000000  00000000  10  1  1  0
#                  145 80211001  0003  00000001  00000000  00000000  00000000  00000000  00  0  0  0
#                  155 80211001  0003  00000001  00000000  00000000  00000000  00000000  10  0  0  0
#                  175 80211001  0003  00000001  00000002  00000000  00000000  00000000  10  0  0  0
#                  185 8032200b  0003  00000001  00000002  00000000  00000000  00000000  10  1  1  0
#                  195 8032200b  0004  00000001  00000002  00000000  00000000  00000000  00  0  0  0
#                  205 8032200b  0004  00000001  00000002  00000000  00000000  00000000  10  0  0  0
#                  225 8032200b  0004  00000001  00000002  00000008  00000000  00000000  10  0  0  0
#                  235 80412002  0004  00000001  00000002  00000008  00000000  00000000  10  1  1  0
#                  245 80412002  0005  00000001  00000002  00000008  00000000  00000000  00  0  0  0
#                  255 80412002  0005  00000001  00000002  00000008  00000000  00000000  10  0  0  0
#                  275 80412002  0005  00000001  00000002  00000008  ffffffff  00000000  10  0  0  0
#                  285 8044300a  0005  00000001  00000002  00000008  ffffffff  00000000  10  1  1  0
#                  295 8044300a  0006  00000001  00000002  00000008  ffffffff  00000000  00  0  0  0
#                  305 8044300a  0006  00000001  00000002  00000008  ffffffff  00000000  10  0  0  0
#                  325 8044300a  0006  00000001  00000002  00000008  00ffffff  00000000  10  0  0  0
#                  335 80234007  0006  00000001  00000002  00000008  00ffffff  00000000  10  1  1  0
#                  345 80234007  0007  00000001  00000002  00000008  00ffffff  00000000  00  0  0  0
#                  355 80234007  0007  00000001  00000002  00000008  00ffffff  00000000  10  0  0  0
#                  375 80234007  0007  00000001  00fffff7  00000008  00ffffff  00000000  10  0  0  0
#                  385 80220004  0007  00000001  00fffff7  00000008  00ffffff  00000000  10  1  1  0
#                  395 80220004  0008  00000001  00fffff7  00000008  00ffffff  00000000  00  0  0  0
#                  405 80220004  0008  00000001  00fffff7  00000008  00ffffff  00000000  10  0  0  0
#                  425 80220004  0008  00000001  ff000008  00000008  00ffffff  00000000  10  0  0  0
#                  435 80421009  0008  00000001  ff000008  00000008  00ffffff  00000000  10  1  1  0
#                  445 80421009  0009  00000001  ff000008  00000008  00ffffff  00000000  00  0  0  0
#                  455 80421009  0009  00000001  ff000008  00000008  00ffffff  00000000  10  0  0  0
#                  475 80421009  0009  00000001  ff000008  00000008  fe000011  00000000  10  0  0  0
#                  485 80524005  0009  00000001  ff000008  00000008  fe000011  00000000  10  1  1  0
#                  495 80524005  000a  00000001  ff000008  00000008  fe000011  00000000  00  0  0  0
#                  505 80524005  000a  00000001  ff000008  00000008  fe000011  00000000  10  0  0  0
#                  525 80524005  000a  00000001  ff000008  00000008  fe000011  ff000019  10  0  0  0
#                  535 80324006  000a  00000001  ff000008  00000008  fe000011  ff000019  10  1  1  0
#                  545 80324006  000b  00000001  ff000008  00000008  fe000011  ff000019  00  0  0  0
#                  555 80324006  000b  00000001  ff000008  00000008  fe000011  ff000019  10  0  0  0
#                  575 80324006  000b  00000001  ff000008  fe000000  fe000011  ff000019  10  0  0  0
#                  585 00000000  000b  00000001  ff000008  fe000000  fe000011  ff000019  10  1  1  0
#                  595 00000000  000c  00000001  ff000008  fe000000  fe000011  ff000019  00  0  0  0
#                  605 00000000  000c  00000001  ff000008  fe000000  fe000011  ff000019  10  0  0  0
#                  635 88100001  000c  00000001  ff000008  fe000000  fe000011  ff000019  10  1  1  0
#                  645 88100001  000d  00000001  ff000008  fe000000  fe000011  ff000019  01  0  0  0
#                  655 88100001  000d  00000001  ff000008  fe000000  fe000011  ff000019  11  0  0  0
#                  665 88100001  000d  00000001  ff000008  fe000000  fe000011  ff000019  10  0  0  0
#                  685 80211002  000d  00000001  ff000008  fe000000  fe000011  ff000019  10  1  1  0
#                  695 80211002  000e  00000001  ff000008  fe000000  fe000011  ff000019  00  0  0  0
#                  705 80211002  000e  00000001  ff000008  fe000000  fe000011  ff000019  10  0  0  0
#                  725 80211002  000e  00000001  00000000  fe000000  fe000011  ff000019  10  0  0  0
#                  735 80201002  000e  00000001  00000000  fe000000  fe000011  ff000019  10  1  1  0
#                  745 80201002  000f  00000001  00000000  fe000000  fe000011  ff000019  00  0  0  0
#                  755 80201002  000f  00000001  00000000  fe000000  fe000011  ff000019  10  0  0  0
#                  775 80201002  000f  00000001  ffffffff  fe000000  fe000011  ff000019  10  0  0  0
#                  785 80311008  000f  00000001  ffffffff  fe000000  fe000011  ff000019  10  1  1  0
#                  795 80311008  0010  00000001  ffffffff  fe000000  fe000011  ff000019  00  0  0  0
#                  805 80311008  0010  00000001  ffffffff  fe000000  fe000011  ff000019  10  0  0  0
#                  825 80311008  0010  00000001  ffffffff  80000000  fe000011  ff000019  10  0  0  0
#                  835 80423001  0010  00000001  ffffffff  80000000  fe000011  ff000019  10  1  1  0
#                  845 80423001  0011  00000001  ffffffff  80000000  fe000011  ff000019  00  0  0  0
#                  855 80423001  0011  00000001  ffffffff  80000000  fe000011  ff000019  10  0  0  0
#                  875 80423001  0011  00000001  ffffffff  80000000  7fffffff  ff000019  10  0  0  0
#                  885 00000000  0011  00000001  ffffffff  80000000  7fffffff  ff000019  10  1  1  0
#                  895 00000000  0012  00000001  ffffffff  80000000  7fffffff  ff000019  00  0  0  0
#                  905 00000000  0012  00000001  ffffffff  80000000  7fffffff  ff000019  10  0  0  0
#                  935 80400001  0012  00000001  ffffffff  80000000  7fffffff  ff000019  10  1  1  0
#                  945 80400001  0013  00000001  ffffffff  80000000  7fffffff  ff000019  00  0  0  0
#                  955 80400001  0013  00000001  ffffffff  80000000  7fffffff  ff000019  10  0  0  0
#                  975 80400001  0013  00000001  ffffffff  80000000  00000000  ff000019  10  0  0  0
#                  985 6100001d  0013  00000001  ffffffff  80000000  00000000  ff000019  10  1  1  1
#                  995 6100001d  001d  00000001  ffffffff  80000000  00000000  ff000019  00  0  0  0
#                 1005 6100001d  001d  00000001  ffffffff  80000000  00000000  ff000019  10  0  0  0
#                 1035 f0000000  001d  00000001  ffffffff  80000000  00000000  ff000019  10  1  1  0
# Halt.
# ** Note: $stop    : C:/Users/klndholm/Documents/SISC_project/sisc_p2_files/ctrl.v(195)
#    Time: 1040 ns  Iteration: 0  Instance: /sisc_tb/uut/u1
# Break in Module ctrl at C:/Users/klndholm/Documents/SISC_project/sisc_p2_files/ctrl.v line 195
